[{"id":1,"nombre":"Ardath","apellido":"Lynn","ciudad":"Bagong Barrio","telefono":"504-933-7274","email":"alynn0@lulu.com","password":"aNdr2dAZ"},
{"id":2,"nombre":"Alfons","apellido":"Aubrey","ciudad":"Zhankhoteko","telefono":"360-589-6206","email":"aaubrey1@jugem.jp","password":"WWH6Xb"},
{"id":3,"nombre":"Concettina","apellido":"Droghan","ciudad":"Nova Odesa","telefono":"892-707-3846","email":"cdroghan2@163.com","password":"pqNviTpiK4"},
{"id":4,"nombre":"Kent","apellido":"Astall","ciudad":"Santa Rosa de Lima","telefono":"721-939-1146","email":"kastall3@sfgate.com","password":"94FTU5iXRgT"},
{"id":5,"nombre":"Leilah","apellido":"Twining","ciudad":"Xiaochuan","telefono":"212-211-1657","email":"ltwining4@apache.org","password":"0cON2mgFrcG"},
{"id":6,"nombre":"Karlie","apellido":"Aizikov","ciudad":"Desa Baregbeg","telefono":"117-649-3020","email":"kaizikov5@phoca.cz","password":"h0T9ktq5"},
{"id":7,"nombre":"Dorie","apellido":"Striker","ciudad":"Urechcha","telefono":"433-483-3942","email":"dstriker6@mozilla.org","password":"EniB61lR"},
{"id":8,"nombre":"Karin","apellido":"Calverley","ciudad":"Unidad","telefono":"382-373-4792","email":"kcalverley7@phoca.cz","password":"4MADhS"},
{"id":9,"nombre":"Alanna","apellido":"Adrien","ciudad":"Stockholm","telefono":"445-931-8431","email":"aadrien8@japanpost.jp","password":"BZnmdkyLIV"},
{"id":10,"nombre":"Tore","apellido":"Shelsher","ciudad":"Dongjie","telefono":"956-125-6238","email":"tshelsher9@yandex.ru","password":"a4NzHTH"},
{"id":11,"nombre":"Tarrah","apellido":"Tupie","ciudad":"Kralice na Hané","telefono":"696-730-2952","email":"ttupiea@baidu.com","password":"0WUIyw"},
{"id":12,"nombre":"Godiva","apellido":"Goodspeed","ciudad":"Parobé","telefono":"329-220-2803","email":"ggoodspeedb@networksolutions.com","password":"kxM9lF"},
{"id":13,"nombre":"Laureen","apellido":"Cosford","ciudad":"Shangyi","telefono":"115-656-2453","email":"lcosfordc@sitemeter.com","password":"GI7FyWrJmn"},
{"id":14,"nombre":"Eberhard","apellido":"Fissenden","ciudad":"Ngô Đồng","telefono":"483-834-0726","email":"efissendend@zimbio.com","password":"f0vpOfl764"},
{"id":15,"nombre":"Harvey","apellido":"Wardale","ciudad":"Firminópolis","telefono":"490-506-9144","email":"hwardalee@over-blog.com","password":"D0ATW8t"},
{"id":16,"nombre":"Allan","apellido":"Strowan","ciudad":"Panxi","telefono":"738-595-2543","email":"astrowanf@topsy.com","password":"Uave9vLhxnWw"},
{"id":17,"nombre":"Carol","apellido":"Glasner","ciudad":"Xufu","telefono":"755-529-4478","email":"cglasnerg@typepad.com","password":"AY8600bcn3D"},
{"id":18,"nombre":"Ellen","apellido":"Lange","ciudad":"Nakonde","telefono":"173-227-4528","email":"elangeh@upenn.edu","password":"mQPghtnxycK"},
{"id":19,"nombre":"Jennica","apellido":"Gioan","ciudad":"Houjiagang","telefono":"956-279-2682","email":"jgioani@creativecommons.org","password":"DRIxs03s5"},
{"id":20,"nombre":"Welch","apellido":"Pedrielli","ciudad":"La Estrella","telefono":"646-607-9563","email":"wpedriellij@vinaora.com","password":"z9VgHf7j"},
{"id":21,"nombre":"Conny","apellido":"Tipler","ciudad":"La Estancia","telefono":"383-559-3996","email":"ctiplerk@typepad.com","password":"8Q2hA7KAP"},
{"id":22,"nombre":"Lucita","apellido":"Copeman","ciudad":"Novokayakent","telefono":"821-563-9191","email":"lcopemanl@wiley.com","password":"RjZSxr"},
{"id":23,"nombre":"Sherlocke","apellido":"Dinsmore","ciudad":"Licheng","telefono":"742-722-3436","email":"sdinsmorem@hugedomains.com","password":"dsOV1oX"},
{"id":24,"nombre":"Deanne","apellido":"Stiffell","ciudad":"Honghai","telefono":"532-153-3430","email":"dstiffelln@usda.gov","password":"UUHQRDznxu"},
{"id":25,"nombre":"Olva","apellido":"Van Halle","ciudad":"Basak","telefono":"719-271-3267","email":"ovanhalleo@unblog.fr","password":"skdA8O1pd0J"},
{"id":26,"nombre":"Carlee","apellido":"Steen","ciudad":"Ueda","telefono":"833-184-8752","email":"csteenp@scientificamerican.com","password":"bScVMTdJB"},
{"id":27,"nombre":"Ula","apellido":"Pestricke","ciudad":"Jerusalem","telefono":"509-445-5077","email":"upestrickeq@jiathis.com","password":"iDZT5oxyFYV"},
{"id":28,"nombre":"Moira","apellido":"Farnon","ciudad":"Vári","telefono":"745-410-7416","email":"mfarnonr@jalbum.net","password":"Or34hwdempqL"},
{"id":29,"nombre":"Annora","apellido":"Callicott","ciudad":"Kuantan","telefono":"185-406-6263","email":"acallicotts@bloglovin.com","password":"nZiAhAjF2ed5"},
{"id":30,"nombre":"Engelbert","apellido":"Whitefoot","ciudad":"Beigong","telefono":"546-263-2070","email":"ewhitefoott@etsy.com","password":"sITRUdvVbN0P"},
{"id":31,"nombre":"Tucker","apellido":"Witherow","ciudad":"Borowno","telefono":"407-203-4555","email":"twitherowu@stanford.edu","password":"Ovge06HkK"},
{"id":32,"nombre":"Colby","apellido":"Cave","ciudad":"Kobelyaky","telefono":"443-934-9891","email":"ccavev@google.fr","password":"qrcBwNNN12H"},
{"id":33,"nombre":"Otho","apellido":"Paudin","ciudad":"Akkol’","telefono":"185-767-9554","email":"opaudinw@whitehouse.gov","password":"qSNfvvod48"},
{"id":34,"nombre":"Abdul","apellido":"Sneaker","ciudad":"Denver","telefono":"303-909-6522","email":"asneakerx@va.gov","password":"8iuNQjm4"},
{"id":35,"nombre":"Desmund","apellido":"Skillings","ciudad":"Trieste","telefono":"487-974-4434","email":"dskillingsy@tmall.com","password":"SbBh6iMiG"},
{"id":36,"nombre":"Ethyl","apellido":"Drinkhill","ciudad":"Tha Wang Pha","telefono":"925-397-8363","email":"edrinkhillz@diigo.com","password":"YeHjjRjGo9N"},
{"id":37,"nombre":"Rosabel","apellido":"Donnell","ciudad":"Renfengzhuang","telefono":"978-113-3607","email":"rdonnell10@hostgator.com","password":"YtUMwi0K9"},
{"id":38,"nombre":"Sasha","apellido":"Kerner","ciudad":"Mirriah","telefono":"513-178-7369","email":"skerner11@geocities.jp","password":"jYXjPNBm0Ku"},
{"id":39,"nombre":"Ban","apellido":"Matthieson","ciudad":"Bayang","telefono":"277-463-1505","email":"bmatthieson12@flavors.me","password":"pmcCNzc6w0"},
{"id":40,"nombre":"Rosabelle","apellido":"Battie","ciudad":"Severomorsk","telefono":"744-942-0305","email":"rbattie13@dailymail.co.uk","password":"NJW8Qu9nYk"},
{"id":41,"nombre":"Alia","apellido":"Clixby","ciudad":"Arma","telefono":"411-476-7377","email":"aclixby14@cdbaby.com","password":"bb6uX1zNB5"},
{"id":42,"nombre":"Jerry","apellido":"Riall","ciudad":"Zoumi","telefono":"242-100-3389","email":"jriall15@mashable.com","password":"1AAG6af"},
{"id":43,"nombre":"Beckie","apellido":"Gudge","ciudad":"Purificación","telefono":"180-502-2195","email":"bgudge16@t-online.de","password":"eVSsv3NmOx4"},
{"id":44,"nombre":"Cullan","apellido":"MacDaid","ciudad":"Wohyń","telefono":"150-272-6620","email":"cmacdaid17@webs.com","password":"7d9Lla"},
{"id":45,"nombre":"Allin","apellido":"Sealand","ciudad":"Bakulong","telefono":"673-317-6825","email":"asealand18@g.co","password":"nToBxSG59"},
{"id":46,"nombre":"Dorthy","apellido":"Shaves","ciudad":"Ocuviri","telefono":"231-201-8783","email":"dshaves19@ted.com","password":"ouMEhvJvGd7"},
{"id":47,"nombre":"Gayelord","apellido":"Bree","ciudad":"Shilovo","telefono":"231-520-4320","email":"gbree1a@mail.ru","password":"4vh4Ad"},
{"id":48,"nombre":"Erich","apellido":"Chinnick","ciudad":"Molodohvardiys’k","telefono":"468-939-9269","email":"echinnick1b@digg.com","password":"wJJMNfgxsn"},
{"id":49,"nombre":"Wells","apellido":"Godman","ciudad":"Yugang","telefono":"449-868-8623","email":"wgodman1c@cpanel.net","password":"2U0uGiRL"},
{"id":50,"nombre":"Isabel","apellido":"Playle","ciudad":"Chugay","telefono":"664-505-8046","email":"iplayle1d@nymag.com","password":"aYxbl2ab"},
{"id":51,"nombre":"Henderson","apellido":"Stapley","ciudad":"Du’ermenqin","telefono":"376-875-5737","email":"hstapley1e@amazonaws.com","password":"DP3KHXtftQ"},
{"id":52,"nombre":"Emory","apellido":"Burnyate","ciudad":"Ar Riqāmā","telefono":"166-960-7424","email":"eburnyate1f@accuweather.com","password":"tpFFsOp"},
{"id":53,"nombre":"Wit","apellido":"Hilling","ciudad":"Danao","telefono":"498-989-5431","email":"whilling1g@lulu.com","password":"pn8uVLS"},
{"id":54,"nombre":"Curry","apellido":"Hanway","ciudad":"Setúbal","telefono":"295-995-8177","email":"chanway1h@census.gov","password":"o1mFYz"},
{"id":55,"nombre":"Leonie","apellido":"Crossfeld","ciudad":"Konstantinovo","telefono":"855-695-2514","email":"lcrossfeld1i@usatoday.com","password":"5iA3XEcvIYGX"},
{"id":56,"nombre":"Vanessa","apellido":"Rottery","ciudad":"Lijiang","telefono":"892-730-3874","email":"vrottery1j@studiopress.com","password":"I22KSCwOo6Sn"},
{"id":57,"nombre":"Barnebas","apellido":"Grichukhin","ciudad":"Formosa","telefono":"542-831-5634","email":"bgrichukhin1k@un.org","password":"RED7ld"},
{"id":58,"nombre":"Jethro","apellido":"Nicely","ciudad":"Cibunar","telefono":"278-719-6903","email":"jnicely1l@opera.com","password":"Evd19HPas"},
{"id":59,"nombre":"Byram","apellido":"Saenz","ciudad":"La Floresta","telefono":"820-355-1115","email":"bsaenz1m@shutterfly.com","password":"cMISvy"},
{"id":60,"nombre":"Derrek","apellido":"Forsaith","ciudad":"Fujishiro","telefono":"684-261-4842","email":"dforsaith1n@ocn.ne.jp","password":"nKFzi2XIcDb"},
{"id":61,"nombre":"Cloe","apellido":"Du Barry","ciudad":"Monywa","telefono":"356-542-8872","email":"cdubarry1o@usatoday.com","password":"eykaA3m"},
{"id":62,"nombre":"Brendin","apellido":"Tomadoni","ciudad":"Quemú Quemú","telefono":"368-631-4386","email":"btomadoni1p@joomla.org","password":"osbEj1TyEDjK"},
{"id":63,"nombre":"Northrup","apellido":"Holtom","ciudad":"Bangad","telefono":"587-939-4854","email":"nholtom1q@nifty.com","password":"BeDZJ8XA"},
{"id":64,"nombre":"Leisha","apellido":"Smellie","ciudad":"Lapinjärvi","telefono":"508-731-3917","email":"lsmellie1r@issuu.com","password":"2ezTug"},
{"id":65,"nombre":"Brand","apellido":"Letixier","ciudad":"Stavropol’","telefono":"933-488-2374","email":"bletixier1s@marriott.com","password":"ncDFaX6bwgy"},
{"id":66,"nombre":"Ira","apellido":"Duchenne","ciudad":"Ḩalḩūl","telefono":"182-701-7682","email":"iduchenne1t@comcast.net","password":"pz4WJf0n08"},
{"id":67,"nombre":"Antonius","apellido":"Bauer","ciudad":"Malati","telefono":"972-896-8695","email":"abauer1u@edublogs.org","password":"3nLFJ4"},
{"id":68,"nombre":"Darnell","apellido":"Hunnawill","ciudad":"Purda","telefono":"649-560-5545","email":"dhunnawill1v@nifty.com","password":"dRY3H8SCRo"},
{"id":69,"nombre":"Nestor","apellido":"Redgewell","ciudad":"Zubrzyca Dolna","telefono":"727-842-7816","email":"nredgewell1w@bbc.co.uk","password":"9eXu6ym"},
{"id":70,"nombre":"Hamnet","apellido":"Roja","ciudad":"Zhangdiyingzi","telefono":"703-542-1050","email":"hroja1x@wufoo.com","password":"t6sICjHc1L"},
{"id":71,"nombre":"Fielding","apellido":"Mineghelli","ciudad":"Giado","telefono":"650-919-3086","email":"fmineghelli1y@storify.com","password":"q4rgvfSXA2Un"},
{"id":72,"nombre":"Darren","apellido":"Ludewig","ciudad":"Danjiangkou","telefono":"811-798-6452","email":"dludewig1z@java.com","password":"n5O7SM7Fs"},
{"id":73,"nombre":"Jayne","apellido":"Grzegorczyk","ciudad":"Capitán Bado","telefono":"804-824-9920","email":"jgrzegorczyk20@stumbleupon.com","password":"qIEzIWeBe"},
{"id":74,"nombre":"Valle","apellido":"Heathcoat","ciudad":"Tiedonglu","telefono":"531-282-4149","email":"vheathcoat21@yellowpages.com","password":"8JqoQfa1A"},
{"id":75,"nombre":"Wenonah","apellido":"Luthwood","ciudad":"Binulasan","telefono":"369-961-6737","email":"wluthwood22@skype.com","password":"8aMW8CmMo"},
{"id":76,"nombre":"Jeannie","apellido":"Luckings","ciudad":"Sekararum","telefono":"391-917-9835","email":"jluckings23@istockphoto.com","password":"Iv9bcBPwfrcU"},
{"id":77,"nombre":"Thane","apellido":"O'Kane","ciudad":"Canomoy","telefono":"498-387-5165","email":"tokane24@xinhuanet.com","password":"6sKtSqQAj5"},
{"id":78,"nombre":"Emmery","apellido":"Trewartha","ciudad":"Martinópolis","telefono":"492-617-4304","email":"etrewartha25@purevolume.com","password":"SjbDFA"},
{"id":79,"nombre":"Stella","apellido":"Sampson","ciudad":"Tiandian","telefono":"405-775-7871","email":"ssampson26@phpbb.com","password":"G8PzGOJpvhA"},
{"id":80,"nombre":"Alard","apellido":"Rounsefell","ciudad":"Vale","telefono":"591-912-9303","email":"arounsefell27@163.com","password":"5Z7anHdaR"},
{"id":81,"nombre":"Jolee","apellido":"Daverin","ciudad":"Heping","telefono":"949-377-7907","email":"jdaverin28@europa.eu","password":"1AfsKQBWd5"},
{"id":82,"nombre":"Marlena","apellido":"Braghini","ciudad":"Huanggangshan","telefono":"126-200-1998","email":"mbraghini29@sourceforge.net","password":"E7zM3MzcOcV"},
{"id":83,"nombre":"Pearla","apellido":"Waliszewski","ciudad":"Kiuruvesi","telefono":"103-618-1539","email":"pwaliszewski2a@phoca.cz","password":"p5OvlDq"},
{"id":84,"nombre":"Myer","apellido":"Purse","ciudad":"Ringinagung","telefono":"758-332-1971","email":"mpurse2b@mysql.com","password":"jWJUGFw"},
{"id":85,"nombre":"Burton","apellido":"McCarly","ciudad":"Jiujie","telefono":"869-437-6684","email":"bmccarly2c@paypal.com","password":"gYN9VUfc8I"},
{"id":86,"nombre":"Derril","apellido":"Lintin","ciudad":"Ar Riqāb","telefono":"898-972-7378","email":"dlintin2d@msu.edu","password":"t233S5"},
{"id":87,"nombre":"Melony","apellido":"Lodeke","ciudad":"Galán","telefono":"560-413-8837","email":"mlodeke2e@sfgate.com","password":"AcppNa"},
{"id":88,"nombre":"Paddy","apellido":"Vautrey","ciudad":"Birr","telefono":"509-493-6811","email":"pvautrey2f@reuters.com","password":"wvqozIwGd"},
{"id":89,"nombre":"Noelle","apellido":"Learie","ciudad":"Al Bīrah","telefono":"787-993-7184","email":"nlearie2g@uiuc.edu","password":"CRXm1G3Y"},
{"id":90,"nombre":"Ryun","apellido":"Greatbach","ciudad":"Taoyuan","telefono":"669-621-4562","email":"rgreatbach2h@dyndns.org","password":"NuOBLg"},
{"id":91,"nombre":"Jody","apellido":"Hunnaball","ciudad":"Reckange-sur-Mess","telefono":"377-854-0394","email":"jhunnaball2i@pinterest.com","password":"nfatm7gj"},
{"id":92,"nombre":"Mechelle","apellido":"Sivill","ciudad":"Tessaoua","telefono":"242-859-7619","email":"msivill2j@studiopress.com","password":"DyAnQrN7o"},
{"id":93,"nombre":"Ringo","apellido":"Claringbold","ciudad":"Ricardo Palma","telefono":"980-104-0602","email":"rclaringbold2k@fda.gov","password":"1rXHdvw5A"},
{"id":94,"nombre":"Jerrylee","apellido":"Handrick","ciudad":"Kampungruweh","telefono":"335-556-6892","email":"jhandrick2l@globo.com","password":"qr7MWEwOv"},
{"id":95,"nombre":"Nelle","apellido":"Ellen","ciudad":"Walton","telefono":"577-262-7870","email":"nellen2m@samsung.com","password":"JmXmCMLJTaMS"},
{"id":96,"nombre":"Whitney","apellido":"Griswood","ciudad":"Troitsk","telefono":"920-104-3744","email":"wgriswood2n@devhub.com","password":"z4Chunz7"},
{"id":97,"nombre":"Saidee","apellido":"Bartleet","ciudad":"Rettikhovka","telefono":"346-283-4637","email":"sbartleet2o@psu.edu","password":"9Y2H8BXc6S"},
{"id":98,"nombre":"Reba","apellido":"Fernez","ciudad":"Ozimek","telefono":"406-885-2318","email":"rfernez2p@macromedia.com","password":"fanKd5cbtzC"},
{"id":99,"nombre":"Eben","apellido":"Danbye","ciudad":"Sapucaia","telefono":"597-166-1210","email":"edanbye2q@pagesperso-orange.fr","password":"tAhnxnF"},
{"id":100,"nombre":"Berkley","apellido":"Yesinin","ciudad":"Yeyik","telefono":"199-253-5145","email":"byesinin2r@nyu.edu","password":"HNsjDLKX"}]
